run growth models • Growth
…
p <- Gro_pred(data = dat, 
              out = out$model, 
              title =out$wAIC_tab$model[1])
#> Registered S3 methods overwritten by 'ggpp':
#>   method                  from   
#>   heightDetails.titleGrob ggplot2
#>   widthDetails.titleGrob  ggplot2
p$summary
#>                   mean          sd       QI 2.5      QI 97.5     Rhat
#> mu_gamma  7.608254e-02  0.02689827 3.436972e-02   0.12994073 1.449363
#> mu_z0     2.357651e+00  2.82616140 1.842070e-02   9.81688657 1.067070
#> mu_zinf   1.870152e+02 53.50979304 1.165386e+02 312.84787536 1.385989
#> sigma_res 7.110652e-03  0.01486939 2.997295e-04   0.07523896 2.769497
p$predictions
#> # A tibble: 102 × 4
#>      Age  mean Conf_Int_low Conf_Int_up
#>    <dbl> <dbl>        <dbl>       <dbl>
#>  1   0    2.36       0.0184        9.82
#>  2   0.1  3.64       1.36         10.9 
#>  3   0.2  4.91       2.65         12.0 
#>  4   0.3  6.17       3.89         13.2 
#>  5   0.4  7.42       5.06         14.4 
#>  6   0.5  8.66       6.19         15.7 
#>  7   0.6  9.89       7.29         17.1 
#>  8   0.7 11.1        8.42         18.2 
#>  9   0.8 12.3        9.51         19.4 
#> 10   0.9 13.5       10.6          20.5 
#> # ℹ 92 more rows
…
